{
	"required": true,
	"minVersion": "0.8",
	"package": "com.enderzombi102.wthitplugins.mixin",
	"compatibilityLevel": "JAVA_16",
	"mixins": [],
	"client": [
		"KeyBindingAccessor",
		"InteractionManagerMixin"
	],
	"injectors": {
		"defaultRequire": 1
	}
}
